Chapter 2 Get data | The West Brook Story
…
  # output for Xioawei
  for (i in seq_along(eh)){
    write.csv(eh[[i]], file = paste0('./models/cmrFlow4rivers/dataOut/', 
                                     names(eh)[i], 
                                     ".csv"), 
              row.names = F)
  }

  ######################################  
  # all cohorts 2002:2014, ALL rivers
  
  cdWB_CMR0 %>% group_by(riverN, cohort) %>% summarize(n = n())

## # A tibble: 69 × 3
## # Groups:   riverN [4]
##    riverN cohort     n
##     <dbl>  <dbl> <int>
##  1      1   1997  7170
##  2      1   1998 18616
##  3      1   1999 14751
##  4      1   2000 23511
##  5      1   2001 25017
##  6      1   2002 14383
##  7      1   2003 27296
##  8      1   2004 27355
##  9      1   2005  7035
## 10      1   2006  8513
## # … with 59 more rows
…
