Chapter 3 Models | The West Brook Story
…
## 
## FALSE 
##   343

  table(cfirstObs2000_2001BKT$observedLength)

## 
## 57 58 59 60 61 62 63 64 65 66 67 68 69 70 71 72 73 74 75 76 77 78 79 80 85 90 
## 18 23 23 26 20 28 19 14 28 23 20 21  9 14  8 11  3  8  4  5  6  5  1  3  2  1

  cfirstObs2000_2001BKT %>% filter(observedLength < 60)

## # A tibble: 64 x 26
##    tag      species river detectionDate       sampleNumber     n proportionSampl~ observedLength observedWeight area  season
##    <chr>    <chr>   <chr> <dttm>                     <dbl> <dbl>            <dbl>          <dbl>          <dbl> <chr>  <dbl>
##  1 1bf0fc3~ bkt     west~ 2001-09-10 12:00:00           27     2                1             58            1.9 insi~      3
##  2 1bf0fc4~ bkt     west~ 2001-09-07 12:00:00           27     2                1             57            1.9 insi~      3
##  3 1bf0fe5~ bkt     west~ 2001-09-07 12:00:00           27     1                1             59            2.1 insi~      3
##  4 1bf0fe7~ bkt     west~ 2001-09-07 12:00:00           27     6                1             59            2.1 insi~      3
##  5 1bf0fe8~ bkt     west~ 2001-09-06 12:00:00           27     1                1             59            2.2 insi~      3
##  6 1bf0fe8~ bkt     west~ 2001-09-10 12:00:00           27     1                1             57            1.9 insi~      3
##  7 1bf0fe8~ bkt     west~ 2001-09-07 12:00:00           27     3                1             58            2   insi~      3
##  8 1bf0fe8~ bkt     west~ 2001-09-10 12:00:00           27     2                1             58            2.1 insi~      3
##  9 1bf0fe8~ bkt     west~ 2001-09-06 12:00:00           27     4                1             58            2   insi~      3
## 10 1bf0fe9~ bkt     west~ 2001-09-07 12:00:00           27     3                1             58            1.8 insi~      3
## # ... with 54 more rows, and 15 more variables: isYOY <lgl>, date <date>, yday <dbl>, year <dbl>, spawnDate <date>,
## #   emergeDate <date>, oneMonthDate <date>, threeMonthDate <date>, fiveMonthDate <date>, spawn_emerge <list>,
## #   emerge_detect <list>, spawn_detect <list>, oneMonth <list>, threeMonth <list>, fiveMonth <list>
…
