Chapter 4 Young-of-year Growth Model | The West Brook Story
…
## 
## FALSE 
##   343

  table(cdWB12000_2001BKT$observedLength)

## 
## 57 58 59 60 61 62 63 64 65 66 67 68 69 70 71 72 73 74 75 76 77 78 79 80 85 90 
## 18 23 23 26 20 28 19 14 28 23 20 21  9 14  8 11  3  8  4  5  6  5  1  3  2  1

  cdWB12000_2001BKT %>% filter(observedLength < 60)

## # A tibble: 64 x 45
##    tag    detectionDate       sampleName sampleNumber river section area  observedLength survey
##    <chr>  <dttm>              <chr>             <dbl> <chr>   <dbl> <chr>          <dbl> <chr> 
##  1 1bf0f~ 2001-09-10 12:00:00 36                   27 west~      25 insi~             58 shock 
##  2 1bf0f~ 2001-09-07 12:00:00 36                   27 west~      20 insi~             57 shock 
##  3 1bf0f~ 2001-09-07 12:00:00 36                   27 west~      19 insi~             59 shock 
##  4 1bf0f~ 2001-09-07 12:00:00 36                   27 west~      20 insi~             59 shock 
##  5 1bf0f~ 2001-09-06 12:00:00 36                   27 west~      17 insi~             59 shock 
##  6 1bf0f~ 2001-09-10 12:00:00 36                   27 west~      25 insi~             57 shock 
##  7 1bf0f~ 2001-09-07 12:00:00 36                   27 west~      22 insi~             58 shock 
##  8 1bf0f~ 2001-09-10 12:00:00 36                   27 west~      30 insi~             58 shock 
##  9 1bf0f~ 2001-09-06 12:00:00 36                   27 west~      18 insi~             58 shock 
## 10 1bf0f~ 2001-09-07 12:00:00 36                   27 west~      22 insi~             58 shock 
## # ... with 54 more rows, and 36 more variables: pass <dbl>, observedWeight <dbl>,
## #   comments <chr>, cohort <dbl>, species <chr>, dateEmigrated <date>, sex <chr>, year <dbl>,
## #   season <dbl>, proportionSampled <dbl>, lagDetectionDate <dttm>, meanTemperature <dbl>,
## #   meanFlow <dbl>, sectionOriginal <chr>, riverOrdered <ord>, inside <lgl>, yday <dbl>,
## #   ageInSamples <dbl>, isYOY <lgl>, lagSection <dbl>, distMoved <dbl>,
## #   lagObservedWeight <dbl>, lagObservedLength <dbl>, grWeight <dbl>, grLength <dbl>,
## #   minSample <dbl>, maxSample <dbl>, minYear <dbl>, moveDir <dbl>, sampleInterval <dbl>, ...
…
